/home/infosis/Repositories/tweets2/src/main/java/com/ojeanahuel/tweets/controller/UserController.java
/home/infosis/Repositories/tweets2/src/main/java/com/ojeanahuel/tweets/repository/TweetRepository.java
/home/infosis/Repositories/tweets2/src/main/java/com/ojeanahuel/tweets/mapper/TweetMapper.java
/home/infosis/Repositories/tweets2/src/main/java/com/ojeanahuel/tweets/dto/UserDTO.java
/home/infosis/Repositories/tweets2/src/main/java/com/ojeanahuel/tweets/TweetsApplication.java
/home/infosis/Repositories/tweets2/src/main/java/com/ojeanahuel/tweets/service/TweetService.java
/home/infosis/Repositories/tweets2/src/main/java/com/ojeanahuel/tweets/mapper/GenericMapperImpl.java
/home/infosis/Repositories/tweets2/src/main/java/com/ojeanahuel/tweets/datatype/Language.java
/home/infosis/Repositories/tweets2/src/main/java/com/ojeanahuel/tweets/service/UserService.java
/home/infosis/Repositories/tweets2/src/main/java/com/ojeanahuel/tweets/entity/User.java
/home/infosis/Repositories/tweets2/src/main/java/com/ojeanahuel/tweets/config/SwaggerConfig.java
/home/infosis/Repositories/tweets2/src/main/java/com/ojeanahuel/tweets/dto/TweetDTO.java
/home/infosis/Repositories/tweets2/src/main/java/com/ojeanahuel/tweets/exception/InternalServerErrorException.java
/home/infosis/Repositories/tweets2/src/main/java/com/ojeanahuel/tweets/exception/ForbiddenException.java
/home/infosis/Repositories/tweets2/src/main/java/com/ojeanahuel/tweets/mapper/UserMapper.java
/home/infosis/Repositories/tweets2/src/main/java/com/ojeanahuel/tweets/controller/TweetController.java
/home/infosis/Repositories/tweets2/src/main/java/com/ojeanahuel/tweets/entity/Tweet.java
/home/infosis/Repositories/tweets2/src/main/java/com/ojeanahuel/tweets/repository/UserRepository.java
/home/infosis/Repositories/tweets2/src/main/java/com/ojeanahuel/tweets/mapper/GenericMapper.java
